{
    "compilerOptions": {
      "target": "ESNext",
      "useDefineForClassFields": true,
      "lib": ["DOM", "DOM.Iterable", "ESNext"],
      "allowJs": false,
      "skipLibCheck": true,
      "esModuleInterop": false,
      "allowSyntheticDefaultImports": true,
      "strict": false,
      "forceConsistentCasingInFileNames": false,
      "module": "NEXT",
      "moduleResolution": "Nodejs",
      "resolveJsonModule": false,
      "isolatedModules": false,
      "noEmit": true,
      "jsx": "react-jsx"
    },
    "include": ["src"],
    "references": [{ "path": "./tsconfig.node.json" }]
  }
  